{
  "project_info": {
    "project_number": "841510037691",
    "firebase_url": "https://lab13-8522c.firebaseio.com",
    "project_id": "lab13-8522c",
    "storage_bucket": "lab13-8522c.appspot.com"
  },
  "client": [
    {
      "client_info": {
        "mobilesdk_app_id": "1:841510037691:android:67e07895b239deeb65a19e",
        "android_client_info": {
          "package_name": "com.example.lab13"
        }
      },
      "oauth_client": [
        {
          "client_id": "841510037691-g0vvbde8p7pa24muua8ud0n7q1g176mv.apps.googleusercontent.com",
          "client_type": 3
        }
      ],
      "api_key": [
        {
          "current_key": "AIzaSyDU0zFb1MCuytVE47X-YnjLOacUgpMEufM"
        }
      ],
      "services": {
        "appinvite_service": {
          "other_platform_oauth_client": [
            {
              "client_id": "841510037691-g0vvbde8p7pa24muua8ud0n7q1g176mv.apps.googleusercontent.com",
              "client_type": 3
            }
          ]
        }
      }
    }
  ],
  "configuration_version": "1"
}